60HN
…
Admission and discharge dates and times:

(dates <- CRF$SCR |> 
  select(USUBJID, SPEC_DATE_ADMISSION, SPEC_TIME_ADMISSION,
                  SPEC_DATE_DISCHARGE, SPEC_TIME_DISCHARGE) |> 
  na.exclude() |> 
  mutate(ADMISSION = as_datetime(paste(SPEC_DATE_ADMISSION, SPEC_TIME_ADMISSION)),
         DISCHARGE = as_datetime(paste(SPEC_DATE_DISCHARGE, SPEC_TIME_DISCHARGE))) |> 
  select(- SPEC_DATE_ADMISSION, - SPEC_TIME_ADMISSION,
         - SPEC_DATE_DISCHARGE, - SPEC_TIME_DISCHARGE))

# A tibble: 1,908 × 3
   USUBJID    ADMISSION           DISCHARGE          
   <chr>      <dttm>              <dttm>             
 1 008-1-1-01 2025-03-11 16:30:00 2025-03-13 14:40:00
 2 008-1-1-02 2025-03-12 10:00:00 2025-03-14 10:00:00
 3 008-1-1-03 2025-03-12 09:50:00 2025-03-14 09:50:00
 4 008-1-1-04 2025-03-12 13:45:00 2025-03-13 14:55:00
 5 008-1-1-05 2025-03-12 13:40:00 2025-03-28 17:00:00
 6 008-1-1-06 2025-03-12 12:30:00 2025-03-20 14:25:00
 7 008-1-1-07 2025-03-12 14:40:00 2025-03-14 10:30:00
 8 008-1-1-08 2025-03-12 14:30:00 2025-03-17 10:10:00
 9 008-1-1-09 2025-03-12 14:50:00 2025-03-14 09:40:00
10 008-1-1-10 2025-03-12 15:10:00 2025-03-17 14:40:00
# ℹ 1,898 more rows

5 MALDI-TOF data

Reading the MALDI-TOF data:

(MALDITOF <- path2data |>
  paste0(MALDITOF_file) |>
  read_excel() |> 
  select(USUBJID, SampleSchedule, Identification_MALDITOF))

# A tibble: 1,221 × 3
   USUBJID    SampleSchedule Identification_MALDITOF
   <chr>      <chr>          <chr>                  
 1 010-1-1-01 ADMISSION      Klebsiella pneumoniae  
 2 160-1-1-09 ADMISSION      Enterobacter hormaechei
 3 160-2-1-06 ADMISSION      Klebsiella pneumoniae  
 4 160-2-1-04 ADMISSION      Enterobacter hormaechei
 5 160-2-1-04 DISCHARGE      Enterobacter hormaechei
 6 010-1-1-06 DISCHARGE      Enterobacter cloacae   
 7 010-1-1-01 DISCHARGE      Klebsiella pneumoniae  
 8 010-1-1-14 ADMISSION      Enterococcus faecium   
 9 010-1-1-14 ADMISSION      Klebsiella aerogenes   
10 160-2-1-06 DISCHARGE      Klebsiella pneumoniae  
# ℹ 1,211 more rows
…
Generating the presence/absence of K. pneumoniae:

K_pneumoniae_raw <- MALDITOF |> 
  group_by(USUBJID, SampleSchedule) |> 
  group_modify(~ col2listcol(.x, "Identification_MALDITOF")) |> 
  ungroup() |> 
  mutate(Kp = map_lgl(Identification_MALDITOF, ~ "Klebsiella pneumoniae" %in% .x)) |> 
  select(- Identification_MALDITOF) |> 
  arrange(USUBJID, SampleSchedule)

Which gives:

K_pneumoniae_raw

# A tibble: 1,055 × 3
   USUBJID     SampleSchedule Kp   
   <chr>       <chr>          <lgl>
 1 008-1-1-05  ADMISSION      FALSE
 2 008-1-1-05  DISCHARGE      TRUE 
 3 008-1-1-07  ADMISSION      FALSE
 4 008-1-1-07  DISCHARGE      FALSE
 5 008-1-1-08  ADMISSION      FALSE
 6 008-1-1-08  DISCHARGE      FALSE
 7 008-1-1-100 DISCHARGE      FALSE
 8 008-1-1-14  ADMISSION      FALSE
 9 008-1-1-14  DISCHARGE      FALSE
10 008-1-1-15  DISCHARGE      FALSE
# ℹ 1,045 more rows
…
Selecting the patients who do have both ADMISSION and DISCHARGE:

K_pneumoniae <- filter(K_pneumoniae_raw, USUBJID %in% id_with_2obs)

Making the dataset for the multistate modelling:

(Kp_msm <- dates |> 
  mutate(DISCHARGE = as.numeric(DISCHARGE - ADMISSION) / (24 * 60),
         ADMISSION = 0) |> 
  pivot_longer(- USUBJID, names_to = "SampleSchedule", values_to = "days") |> 
  left_join(x = K_pneumoniae, y = _, c("USUBJID", "SampleSchedule")) |> 
  mutate(state = Kp + 1,
         days = map_dbl(days, ~ max(.x, 0))))

# A tibble: 492 × 5
   USUBJID    SampleSchedule Kp     days state
   <chr>      <chr>          <lgl> <dbl> <dbl>
 1 008-1-1-05 ADMISSION      FALSE  0        1
 2 008-1-1-05 DISCHARGE      TRUE  16.1      2
 3 008-1-1-07 ADMISSION      FALSE  0        1
 4 008-1-1-07 DISCHARGE      FALSE  1.83     1
 5 008-1-1-08 ADMISSION      FALSE  0        1
 6 008-1-1-08 DISCHARGE      FALSE  4.82     1
 7 008-1-1-14 ADMISSION      FALSE  0        1
 8 008-1-1-14 DISCHARGE      FALSE 11.8      1
 9 008-1-1-24 ADMISSION      TRUE   0        2
10 008-1-1-24 DISCHARGE      TRUE   6.86     2
# ℹ 482 more rows
…
